2023.3-2023.7/Functional Electronic Circuits/Lab5/example(2)/time.vcd
$date
	Sun Jun 04 20:03:53 2023
$end
$version
	Icarus Verilog
$end
$timescale
	1ps
$end
$scope module lab5_tb $end
$var wire 1 ! sclk $end
$var wire 1 " mosi $end
$var wire 1 # miso $end
$var wire 1 $ cs $end
$var wire 1 % HWRITE $end
$var wire 32 & HWDATA [31:0] $end
$var wire 32 ' HRDATA [31:0] $end
$var wire 32 ( HADDR [31:0] $end
$var parameter 32 ) BASE_ADDR $end
$var parameter 32 * CLK_DIV $end
$var reg 1 + clk $end
$var reg 1 , rst $end
$scope module muut $end
$var wire 1 + HCLK_i $end
$var wire 1 , HRESETn_i $end
$var wire 32 - HRDATA_bi [31:0] $end
$var parameter 8 . OP_ADDR $end
$var parameter 8 / STATUS_ADDR $end
$var reg 32 0 HADDR_bo [31:0] $end
$var reg 32 1 HWDATA_bo [31:0] $end
$var reg 1 % HWRITE_o $end
$var reg 32 2 data [31:0] $end
$scope task read $end
$var reg 32 3 addr [31:0] $end
$var reg 32 4 data [31:0] $end
$upscope $end
$scope task wait_ready $end
$scope begin wait_busy $end
$upscope $end
$scope begin wait_ready $end
$upscope $end
$upscope $end
$scope task write $end
$var reg 32 5 addr [31:0] $end
$var reg 32 6 data [31:0] $end
$upscope $end
$upscope $end
$scope module pdev $end
$var wire 16 7 y [15:0] $end
$var wire 1 ! sclk_i $end
$var wire 32 8 rx_data_buf_next [31:0] $end
$var wire 1 " mosi_i $end
$var wire 1 $ cs_i $end
$var wire 1 9 busy $end
$var parameter 32 : ADDR_CTR_VAL $end
$var parameter 32 ; DATA_CTR_VAL $end
$var parameter 8 < OP_ADDR $end
$var parameter 8 = RESET_ADDR $end
$var parameter 32 > STATE0 $end
$var parameter 32 ? STATE1 $end
$var reg 8 @ a_r [7:0] $end
$var reg 8 A addr_r [7:0] $end
$var reg 8 B b_r [7:0] $end
$var reg 7 C ctr_r [6:0] $end
$var reg 1 # miso_o $end
$var reg 1 D rst_r $end
$var reg 32 E rx_data_buf_r [31:0] $end
$var reg 1 F start_r $end
$var reg 1 G state_r $end
$var reg 32 H tx_data_buf_r [31:0] $end
$scope module calc_unit $end
$var wire 8 I a_bi [7:0] $end
$var wire 8 J b_bi [7:0] $end
$var wire 8 K part_sum [7:0] $end
$var wire 1 D rst_i $end
$var wire 1 F start_i $end
$var wire 16 L shifted_part_sum [15:0] $end
$var wire 1 ! clk_i $end
$var parameter 2 M END $end
$var parameter 2 N IDLE $end
$var parameter 2 O WORK $end
$var reg 8 P a [7:0] $end
$var reg 8 Q b [7:0] $end
$var reg 1 9 busy_o $end
$var reg 3 R ctr [2:0] $end
$var reg 16 S part_res [15:0] $end
$var reg 2 T state [1:0] $end
$var reg 16 U y_bo [15:0] $end
$upscope $end
$upscope $end
$scope module suut $end
$var wire 32 V HADDR_bi [31:0] $end
$var wire 1 + HCLK_i $end
$var wire 1 , HRESETn_i $end
$var wire 32 W HWDATA_bi [31:0] $end
$var wire 1 % HWRITE_i $end
$var wire 1 # miso_i $end
$var wire 1 ! sclk_o $end
$var wire 1 " mosi_o $end
$var wire 1 X data_tx_wr $end
$var wire 32 Y data_tx [31:0] $end
$var wire 1 Z data_rx_wr $end
$var wire 32 [ data_rx [31:0] $end
$var wire 1 $ cs_o $end
$var wire 1 \ busy $end
$var wire 32 ] HRDATA_bo [31:0] $end
$var parameter 32 ^ BASE_ADDR $end
$var parameter 32 _ CLK_DIV $end
$scope module bus_ctrl $end
$var wire 32 ` HADDR_bi [31:0] $end
$var wire 1 + HCLK_i $end
$var wire 1 , HRESETn_i $end
$var wire 32 a HWDATA_bi [31:0] $end
$var wire 1 % HWRITE_i $end
$var wire 1 Z data_rx_wr_i $end
$var wire 32 b data_rx_bi [31:0] $end
$var wire 1 \ busy_i $end
$var parameter 32 c BASE_ADDR $end
$var parameter 33 d DATA_RX_ADDR $end
$var parameter 33 e DATA_TX_ADDR $end
$var parameter 33 f STATUS_REG_ADDR $end
$var reg 32 g HRDATA_bo [31:0] $end
$var reg 32 h data_rx_r [31:0] $end
$var reg 32 i data_tx_bo [31:0] $end
$var reg 1 X data_tx_wr_o $end
$var reg 8 j status_r [7:0] $end
$upscope $end
$scope module spimaster $end
$var wire 1 + clk_i $end
$var wire 32 k data_tx_bi [31:0] $end
$var wire 1 X data_tx_wr_i $end
$var wire 1 # miso_i $end
$var wire 1 l rst_i $end
$var wire 1 m sclk_posedge $end
$var parameter 32 n CLK_DIV $end
$var parameter 32 o IDLE $end
$var parameter 32 p TRANS $end
$var reg 1 \ busy_o $end
$var reg 32 q clk_div_r [31:0] $end
$var reg 1 $ cs_o $end
$var reg 7 r ctr_r [6:0] $end
$var reg 32 s data_rx_bo [31:0] $end
$var reg 32 t data_rx_buf_r [31:0] $end
$var reg 1 Z data_rx_wr_o $end
$var reg 32 u data_tx_buf_r [31:0] $end
$var reg 1 " mosi_o $end
$var reg 1 ! sclk_o $end
$var reg 2 v state_r [1:0] $end
$upscope $end
$upscope $end
$upscope $end
$enddefinitions $end
$comment Show the parameter values. $end
$dumpall
b1 p
b0 o
b101 n
b0 f
b1 e
b10 d
b0 c
b101 _
b0 ^
b1 O
b0 N
b10 M
b1 ?
b0 >
b0 =
b1 <
b11110 ;
b1111 :
b0 /
b1 .
b1010 *
b0 )
$end
#0
$dumpvars
bx v
bx u
bx t
bx s
bx r
bx q
xm
1l
bx k
bx j
bx i
bx h
bx g
bx b
bx a
bx `
bx ]
x\
bx [
xZ
bx Y
xX
bx W
bx V
bx U
bx T
bx S
bx R
bx Q
bx P
bx L
bx K
bx J
bx I
bx H
0G
xF
bx E
xD
b0 C
bx B
bx A
bx @
x9
bx 8
bx 7
b1 6
b1 5
bx 4
bx 3
b1 2
bx 1
bx 0
bx -
0,
0+
bx (
bx '
bx &
x%
x$
x#
x"
x!
$end
#5000
0m
1%
b1 (
b1 0
b1 V
b1 `
0!
b0 t
b0 r
b0 q
bx0 8
0"
b0 u
0Z
1$
0\
b0 v
0X
b0 Y
b0 i
b0 k
b0 '
b0 -
b0 ]
b0 g
b0 h
b0 j
1+
#10000
0+
#15000
b1 &
b1 1
b1 W
b1 a
1+
#20000
0+
0l
1,
#25000
0%
1X
b1 Y
b1 i
b1 k
b0 3
1+
#30000
0+
#35000
b1 '
b1 -
b1 ]
b1 g
0X
0$
b1 v
1\
b1 u
b0 (
b0 0
b0 V
b0 `
1+
#40000
0+
#45000
b1 q
b0 '
b0 -
b0 ]
b0 g
b1 j
1+
#50000
0+
#55000
b1 '
b1 -
b1 ]
b1 g
b10 q
b0 4
1+
#60000
0+
#65000
b11 q
b0 2
1+
#70000
0+
#75000
b100 q
1+
#80000
0+
#85000
1m
b101 q
1+
#90000
0+
#95000
b0 T
0#
b0xxxxxxxxxxxxxxxxx0 H
0m
b10 u
1!
b0 q
b1 4
1+
#100000
0+
#105000
b1 q
b1 2
1+
#110000
0+
#115000
b10 q
1+
#120000
0+
#125000
b11 q
1+
#130000
0+
#135000
b100 q
1+
#140000
0+
#145000
b101 q
1+
#150000
0+
#155000
bx00 8
bx0 E
1G
0D
0F
b1 r
0!
b0 q
1+
#160000
0+
#165000
b1 q
1+
#170000
0+
#175000
b10 q
1+
#180000
0+
#185000
b11 q
1+
#190000
0+
#195000
b100 q
1+
#200000
0+
#205000
1m
b101 q
1+
#210000
0+
#215000
b0xxxxxxxxxxxxxxxxx00 H
0m
b100 u
1!
b0 q
1+
#220000
0+
#225000
b1 q
1+
#230000
0+
#235000
b10 q
1+
#240000
0+
#245000
b11 q
1+
#250000
0+
#255000
b100 q
1+
#260000
0+
#265000
b101 q
1+
#270000
0+
#275000
bx000 8
bx00 E
b1 C
b10 r
0!
b0 q
1+
#280000
0+
#285000
b1 q
1+
#290000
0+
#295000
b10 q
1+
#300000
0+
#305000
b11 q
1+
#310000
0+
#315000
b100 q
1+
#320000
0+
#325000
1m
b101 q
1+
#330000
0+
#335000
b0xxxxxxxxxxxxxxxxx000 H
0m
b1000 u
1!
b0 q
1+
#340000
0+
#345000
b1 q
1+
#350000
0+
#355000
b10 q
1+
#360000
0+
#365000
b11 q
1+
#370000
0+
#375000
b100 q
1+
#380000
0+
#385000
b101 q
1+
#390000
0+
#395000
bx0000 8
bx000 E
b10 C
b11 r
0!
b0 q
1+
#400000
0+
#405000
b1 q
1+
#410000
0+
#415000
b10 q
1+
#420000
0+
#425000
b11 q
1+
#430000
0+
#435000
b100 q
1+
#440000
0+
#445000
1m
b101 q
1+
#450000
0+
#455000
b0xxxxxxxxxxxxxxxxx0000 H
0m
b10000 u
1!
b0 q
1+
#460000
0+
#465000
b1 q
1+
#470000
0+
#475000
b10 q
1+
#480000
0+
#485000
b11 q
1+
#490000
0+
#495000
b100 q
1+
#500000
0+
#505000
b101 q
1+
#510000
0+
#515000
bx00000 8
bx0000 E
b11 C
b100 r
0!
b0 q
1+
#520000
0+
#525000
b1 q
1+
#530000
0+
#535000
b10 q
1+
#540000
0+
#545000
b11 q
1+
#550000
0+
#555000
b100 q
1+
#560000
0+
#565000
1m
b101 q
1+
#570000
0+
#575000
b0xxxxxxxxxxxxxxxxx00000 H
0m
b100000 u
1!
b0 q
1+
#580000
0+
#585000
b1 q
1+
#590000
0+
#595000
b10 q
1+
#600000
0+
#605000
b11 q
1+
#610000
0+
#615000
b100 q
1+
#620000
0+
#625000
b101 q
1+
#630000
0+
#635000
bx000000 8
bx00000 E
b100 C
b101 r
0!
b0 q
1+
#640000
0+
#645000
b1 q
1+
#650000
0+
#655000
b10 q
1+
#660000
0+
#665000
b11 q
1+
#670000
0+
#675000
b100 q
1+
#680000
0+
#685000
1m
b101 q
1+
#690000
0+
#695000
b0xxxxxxxxxxxxxxxxx000000 H
0m
b1000000 u
1!
b0 q
1+
#700000
0+
#705000
b1 q
1+
#710000
0+
#715000
b10 q
1+
#720000
0+
#725000
b11 q
1+
#730000
0+
#735000
b100 q
1+
#740000
0+
#745000
b101 q
1+
#750000
0+
#755000
bx0000000 8
bx000000 E
b101 C
b110 r
0!
b0 q
1+
#760000
0+
#765000
b1 q
1+
#770000
0+
#775000
b10 q
1+
#780000
0+
#785000
b11 q
1+
#790000
0+
#795000
b100 q
1+
#800000
0+
#805000
1m
b101 q
1+
#810000
0+
#815000
b0xxxxxxxxxxxxxxxxx0000000 H
0m
b10000000 u
1!
b0 q
1+
#820000
0+
#825000
b1 q
1+
#830000
0+
#835000
b10 q
1+
#840000
0+
#845000
b11 q
1+
#850000
0+
#855000
b100 q
1+
#860000
0+
#865000
b101 q
1+
#870000
0+
#875000
bx00000000 8
bx0000000 E
b110 C
b111 r
0!
b0 q
1+
#880000
0+
#885000
b1 q
1+
#890000
0+
#895000
b10 q
1+
#900000
0+
#905000
b11 q
1+
#910000
0+
#915000
b100 q
1+
#920000
0+
#925000
1m
b101 q
1+
#930000
0+
#935000
b0xxxxxxxxxxxxxxxxx00000000 H
0m
b100000000 u
1!
b0 q
1+
#940000
0+
#945000
b1 q
1+
#950000
0+
#955000
b10 q
1+
#960000
0+
#965000
b11 q
1+
#970000
0+
#975000
b100 q
1+
#980000
0+
#985000
b101 q
1+
#990000
0+
#995000
bx000000000 8
bx00000000 E
b111 C
b1000 r
0!
b0 q
1+
#1000000
0+
#1005000
b1 q
1+
#1010000
0+
#1015000
b10 q
1+
#1020000
0+
#1025000
b11 q
1+
#1030000
0+
#1035000
b100 q
1+
#1040000
0+
#1045000
1m
b101 q
1+
#1050000
0+
#1055000
b0xxxxxxxxxxxxxxxxx000000000 H
0m
b1000000000 u
1!
b0 q
1+
#1060000
0+
#1065000
b1 q
1+
#1070000
0+
#1075000
b10 q
1+
#1080000
0+
#1085000
b11 q
1+
#1090000
0+
#1095000
b100 q
1+
#1100000
0+
#1105000
b101 q
1+
#1110000
0+
#1115000
bx0000000000 8
bx000000000 E
b1000 C
b1001 r
0!
b0 q
1+
#1120000
0+
#1125000
b1 q
1+
#1130000
0+
#1135000
b10 q
1+
#1140000
0+
#1145000
b11 q
1+
#1150000
0+
#1155000
b100 q
1+
#1160000
0+
#1165000
1m
b101 q
1+
#1170000
0+
#1175000
b0xxxxxxxxxxxxxxxxx0000000000 H
0m
b10000000000 u
1!
b0 q
1+
#1180000
0+
#1185000
b1 q
1+
#1190000
0+
#1195000
b10 q
1+
#1200000
0+
#1205000
b11 q
1+
#1210000
0+
#1215000
b100 q
1+
#1220000
0+
#1225000
b101 q
1+
#1230000
0+
#1235000
bx00000000000 8
bx0000000000 E
b1001 C
b1010 r
0!
b0 q
1+
#1240000
0+
#1245000
b1 q
1+
#1250000
0+
#1255000
b10 q
1+
#1260000
0+
#1265000
b11 q
1+
#1270000
0+
#1275000
b100 q
1+
#1280000
0+
#1285000
1m
b101 q
1+
#1290000
0+
#1295000
b0xxxxxxxxxxxxxxxxx00000000000 H
0m
b100000000000 u
1!
b0 q
1+
#1300000
0+
#1305000
b1 q
1+
#1310000
0+
#1315000
b10 q
1+
#1320000
0+
#1325000
b11 q
1+
#1330000
0+
#1335000
b100 q
1+
#1340000
0+
#1345000
b101 q
1+
#1350000
0+
#1355000
bx000000000000 8
bx00000000000 E
b1010 C
b1011 r
0!
b0 q
1+
#1360000
0+
#1365000
b1 q
1+
#1370000
0+
#1375000
b10 q
1+
#1380000
0+
#1385000
b11 q
1+
#1390000
0+
#1395000
b100 q
1+
#1400000
0+
#1405000
1m
b101 q
1+
#1410000
0+
#1415000
b0xxxxxxxxxxxxxxxxx000000000000 H
0m
b1000000000000 u
1!
b0 q
1+
#1420000
0+
#1425000
b1 q
1+
#1430000
0+
#1435000
b10 q
1+
#1440000
0+
#1445000
b11 q
1+
#1450000
0+
#1455000
b100 q
1+
#1460000
0+
#1465000
b101 q
1+
#1470000
0+
#1475000
bx0000000000000 8
bx000000000000 E
b1011 C
b1100 r
0!
b0 q
1+
#1480000
0+
#1485000
b1 q
1+
#1490000
0+
#1495000
b10 q
1+
#1500000
0+
#1505000
b11 q
1+
#1510000
0+
#1515000
b100 q
1+
#1520000
0+
#1525000
1m
b101 q
1+
#1530000
0+
#1535000
b0xxxxxxxxxxxxxxxxx0000000000000 H
0m
b10000000000000 u
1!
b0 q
1+
#1540000
0+
#1545000
b1 q
1+
#1550000
0+
#1555000
b10 q
1+
#1560000
0+
#1565000
b11 q
1+
#1570000
0+
#1575000
b100 q
1+
#1580000
0+
#1585000
b101 q
1+
#1590000
0+
#1595000
bx00000000000000 8
bx0000000000000 E
b1100 C
b1101 r
0!
b0 q
1+
#1600000
0+
#1605000
b1 q
1+
#1610000
0+
#1615000
b10 q
1+
#1620000
0+
#1625000
b11 q
1+
#1630000
0+
#1635000
b100 q
1+
#1640000
0+
#1645000
1m
b101 q
1+
#1650000
0+
#1655000
b0xxxxxxxxxxxxxxxxx00000000000000 H
0m
b100000000000000 u
1!
b0 q
1+
#1660000
0+
#1665000
b1 q
1+
#1670000
0+
#1675000
b10 q
1+
#1680000
0+
#1685000
b11 q
1+
#1690000
0+
#1695000
b100 q
1+
#1700000
0+
#1705000
b101 q
1+
#1710000
0+
#1715000
bx000000000000000 8
bx00000000000000 E
b1101 C
b1110 r
0!
b0 q
1+
#1720000
0+
#1725000
b1 q
1+
#1730000
0+
#1735000
b10 q
1+
#1740000
0+
#1745000
b11 q
1+
#1750000
0+
#1755000
b100 q
1+
#1760000
0+
#1765000
1m
b101 q
1+
#1770000
0+
#1775000
bx000000000000000 H
0m
b1000000000000000 u
1!
b0 q
1+
#1780000
0+
#1785000
b1 q
1+
#1790000
0+
#1795000
b10 q
1+
#1800000
0+
#1805000
b11 q
1+
#1810000
0+
#1815000
b100 q
1+
#1820000
0+
#1825000
b101 q
1+
#1830000
0+
#1835000
bx0000000000000000 8
bx000000000000000 E
b1110 C
b1111 r
0!
b0 q
1+
#1840000
0+
#1845000
b1 q
1+
#1850000
0+
#1855000
b10 q
1+
#1860000
0+
#1865000
b11 q
1+
#1870000
0+
#1875000
b100 q
1+
#1880000
0+
#1885000
1m
b101 q
1+
#1890000
0+
#1895000
bx0000000000000000 H
x#
0m
b10000000000000000 u
1!
b0 q
1+
#1900000
0+
#1905000
b1 q
1+
#1910000
0+
#1915000
b10 q
1+
#1920000
0+
#1925000
b11 q
1+
#1930000
0+
#1935000
b100 q
1+
#1940000
0+
#1945000
b101 q
1+
#1950000
0+
#1955000
bx00000000000000000 8
bx0000000000000000 E
b1111 C
b0x t
b10000 r
0!
b0 q
1+
#1960000
0+
#1965000
b1 q
1+
#1970000
0+
#1975000
b10 q
1+
#1980000
0+
#1985000
b11 q
1+
#1990000
0+
#1995000
b100 q
1+
#2000000
0+
#2005000
1m
b101 q
1+
#2010000
0+
#2015000
bx00000000000000000 H
0m
b100000000000000000 u
1!
b0 q
1+
#2020000
0+
#2025000
b1 q
1+
#2030000
0+
#2035000
b10 q
1+
#2040000
0+
#2045000
b11 q
1+
#2050000
0+
#2055000
b100 q
1+
#2060000
0+
#2065000
b101 q
1+
#2070000
0+
#2075000
bx000000000000000000 8
b0 A
bx00000000000000000 E
b10000 C
b0xx t
b10001 r
0!
b0 q
1+
#2080000
0+
#2085000
b1 q
1+
#2090000
0+
#2095000
b10 q
1+
#2100000
0+
#2105000
b11 q
1+
#2110000
0+
#2115000
b100 q
1+
#2120000
0+
#2125000
1m
b101 q
1+
#2130000
0+
#2135000
bx000000000000000000 H
0m
b1000000000000000000 u
1!
b0 q
1+
#2140000
0+
#2145000
b1 q
1+
#2150000
0+
#2155000
b10 q
1+
#2160000
0+
#2165000
b11 q
1+
#2170000
0+
#2175000
b100 q
1+
#2180000
0+
#2185000
b101 q
1+
#2190000
0+
#2195000
bx0000000000000000000 8
bx000000000000000000 E
b10001 C
b0xxx t
b10010 r
0!
b0 q
1+
#2200000
0+
#2205000
b1 q
1+
#2210000
0+
#2215000
b10 q
1+
#2220000
0+
#2225000
b11 q
1+
#2230000
0+
#2235000
b100 q
1+
#2240000
0+
#2245000
1m
b101 q
1+
#2250000
0+
#2255000
bx0000000000000000000 H
0m
b10000000000000000000 u
1!
b0 q
1+
#2260000
0+
#2265000
b1 q
1+
#2270000
0+
#2275000
b10 q
1+
#2280000
0+
#2285000
b11 q
1+
#2290000
0+
#2295000
b100 q
1+
#2300000
0+
#2305000
b101 q
1+
#2310000
0+
#2315000
bx00000000000000000000 8
bx0000000000000000000 E
b10010 C
b0xxxx t
b10011 r
0!
b0 q
1+
#2320000
0+
#2325000
b1 q
1+
#2330000
0+
#2335000
b10 q
1+
#2340000
0+
#2345000
b11 q
1+
#2350000
0+
#2355000
b100 q
1+
#2360000
0+
#2365000
1m
b101 q
1+
#2370000
0+
#2375000
bx00000000000000000000 H
0m
b100000000000000000000 u
1!
b0 q
1+
#2380000
0+
#2385000
b1 q
1+
#2390000
0+
#2395000
b10 q
1+
#2400000
0+
#2405000
b11 q
1+
#2410000
0+
#2415000
b100 q
1+
#2420000
0+
#2425000
b101 q
1+
#2430000
0+
#2435000
bx000000000000000000000 8
bx00000000000000000000 E
b10011 C
b0xxxxx t
b10100 r
0!
b0 q
1+
#2440000
0+
#2445000
b1 q
1+
#2450000
0+
#2455000
b10 q
1+
#2460000
0+
#2465000
b11 q
1+
#2470000
0+
#2475000
b100 q
1+
#2480000
0+
#2485000
1m
b101 q
1+
#2490000
0+
#2495000
bx000000000000000000000 H
0m
b1000000000000000000000 u
1!
b0 q
1+
#2500000
0+
#2505000
b1 q
1+
#2510000
0+
#2515000
b10 q
1+
#2520000
0+
#2525000
b11 q
1+
#2530000
0+
#2535000
b100 q
1+
#2540000
0+
#2545000
b101 q
1+
#2550000
0+
#2555000
bx0000000000000000000000 8
bx000000000000000000000 E
b10100 C
b0xxxxxx t
b10101 r
0!
b0 q
1+
#2560000
0+
#2565000
b1 q
1+
#2570000
0+
#2575000
b10 q
1+
#2580000
0+
#2585000
b11 q
1+
#2590000
0+
#2595000
b100 q
1+
#2600000
0+
#2605000
1m
b101 q
1+
#2610000
0+
#2615000
bx0000000000000000000000 H
0m
b10000000000000000000000 u
1!
b0 q
1+
#2620000
0+
#2625000
b1 q
1+
#2630000
0+
#2635000
b10 q
1+
#2640000
0+
#2645000
b11 q
1+
#2650000
0+
#2655000
b100 q
1+
#2660000
0+
#2665000
b101 q
1+
#2670000
0+
#2675000
bx00000000000000000000000 8
bx0000000000000000000000 E
b10101 C
b0xxxxxxx t
b10110 r
0!
b0 q
1+
#2680000
0+
#2685000
b1 q
1+
#2690000
0+
#2695000
b10 q
1+
#2700000
0+
#2705000
b11 q
1+
#2710000
0+
#2715000
b100 q
1+
#2720000
0+
#2725000
1m
b101 q
1+
#2730000
0+
#2735000
bx00000000000000000000000 H
0m
b100000000000000000000000 u
1!
b0 q
1+
#2740000
0+
#2745000
b1 q
1+
#2750000
0+
#2755000
b10 q
1+
#2760000
0+
#2765000
b11 q
1+
#2770000
0+
#2775000
b100 q
1+
#2780000
0+
#2785000
b101 q
1+
#2790000
0+
#2795000
bx000000000000000000000000 8
bx00000000000000000000000 E
b10110 C
b0xxxxxxxx t
b10111 r
0!
b0 q
1+
#2800000
0+
#2805000
b1 q
1+
#2810000
0+
#2815000
b10 q
1+
#2820000
0+
#2825000
b11 q
1+
#2830000
0+
#2835000
b100 q
1+
#2840000
0+
#2845000
1m
b101 q
1+
#2850000
0+
#2855000
bx000000000000000000000000 H
0m
b1000000000000000000000000 u
1!
b0 q
1+
#2860000
0+
#2865000
b1 q
1+
#2870000
0+
#2875000
b10 q
1+
#2880000
0+
#2885000
b11 q
1+
#2890000
0+
#2895000
b100 q
1+
#2900000
0+
#2905000
b101 q
1+
#2910000
0+
#2915000
bx0000000000000000000000000 8
bx000000000000000000000000 E
b10111 C
b0xxxxxxxxx t
b11000 r
0!
b0 q
1+
#2920000
0+
#2925000
b1 q
1+
#2930000
0+
#2935000
b10 q
1+
#2940000
0+
#2945000
b11 q
1+
#2950000
0+
#2955000
b100 q
1+
#2960000
0+
#2965000
1m
b101 q
1+
#2970000
0+
#2975000
bx0000000000000000000000000 H
0m
b10000000000000000000000000 u
1!
b0 q
1+
#2980000
0+
#2985000
b1 q
1+
#2990000
0+
#2995000
b10 q
1+
#3000000
0+
#3005000
b11 q
1+
#3010000
0+
#3015000
b100 q
1+
#3020000
0+
#3025000
b101 q
1+
#3030000
0+
#3035000
bx00000000000000000000000000 8
bx0000000000000000000000000 E
b11000 C
b0xxxxxxxxxx t
b11001 r
0!
b0 q
1+
#3040000
0+
#3045000
b1 q
1+
#3050000
0+
#3055000
b10 q
1+
#3060000
0+
#3065000
b11 q
1+
#3070000
0+
#3075000
b100 q
1+
#3080000
0+
#3085000
1m
b101 q
1+
#3090000
0+
#3095000
bx00000000000000000000000000 H
0m
b100000000000000000000000000 u
1!
b0 q
1+
#3100000
0+
#3105000
b1 q
1+
#3110000
0+
#3115000
b10 q
1+
#3120000
0+
#3125000
b11 q
1+
#3130000
0+
#3135000
b100 q
1+
#3140000
0+
#3145000
b101 q
1+
#3150000
0+
#3155000
bx000000000000000000000000000 8
bx00000000000000000000000000 E
b11001 C
b0xxxxxxxxxxx t
b11010 r
0!
b0 q
1+
#3160000
0+
#3165000
b1 q
1+
#3170000
0+
#3175000
b10 q
1+
#3180000
0+
#3185000
b11 q
1+
#3190000
0+
#3195000
b100 q
1+
#3200000
0+
#3205000
1m
b101 q
1+
#3210000
0+
#3215000
bx000000000000000000000000000 H
0m
b1000000000000000000000000000 u
1!
b0 q
1+
#3220000
0+
#3225000
b1 q
1+
#3230000
0+
#3235000
b10 q
1+
#3240000
0+
#3245000
b11 q
1+
#3250000
0+
#3255000
b100 q
1+
#3260000
0+
#3265000
b101 q
1+
#3270000
0+
#3275000
bx0000000000000000000000000000 8
bx000000000000000000000000000 E
b11010 C
b0xxxxxxxxxxxx t
b11011 r
0!
b0 q
1+
#3280000
0+
#3285000
b1 q
1+
#3290000
0+
#3295000
b10 q
1+
#3300000
0+
#3305000
b11 q
1+
#3310000
0+
#3315000
b100 q
1+
#3320000
0+
#3325000
1m
b101 q
1+
#3330000
0+
#3335000
bx0000000000000000000000000000 H
0m
b10000000000000000000000000000 u
1!
b0 q
1+
#3340000
0+
#3345000
b1 q
1+
#3350000
0+
#3355000
b10 q
1+
#3360000
0+
#3365000
b11 q
1+
#3370000
0+
#3375000
b100 q
1+
#3380000
0+
#3385000
b101 q
1+
#3390000
0+
#3395000
bx00000000000000000000000000000 8
bx0000000000000000000000000000 E
b11011 C
b0xxxxxxxxxxxxx t
b11100 r
0!
b0 q
1+
#3400000
0+
#3405000
b1 q
1+
#3410000
0+
#3415000
b10 q
1+
#3420000
0+
#3425000
b11 q
1+
#3430000
0+
#3435000
b100 q
1+
#3440000
0+
#3445000
1m
b101 q
1+
#3450000
0+
#3455000
bx00000000000000000000000000000 H
0m
b100000000000000000000000000000 u
1!
b0 q
1+
#3460000
0+
#3465000
b1 q
1+
#3470000
0+
#3475000
b10 q
1+
#3480000
0+
#3485000
b11 q
1+
#3490000
0+
#3495000
b100 q
1+
#3500000
0+
#3505000
b101 q
1+
#3510000
0+
#3515000
bx000000000000000000000000000000 8
bx00000000000000000000000000000 E
b11100 C
b0xxxxxxxxxxxxxx t
b11101 r
0!
b0 q
1+
#3520000
0+
#3525000
b1 q
1+
#3530000
0+
#3535000
b10 q
1+
#3540000
0+
#3545000
b11 q
1+
#3550000
0+
#3555000
b100 q
1+
#3560000
0+
#3565000
1m
b101 q
1+
#3570000
0+
#3575000
bx000000000000000000000000000000 H
0m
b1000000000000000000000000000000 u
1!
b0 q
1+
#3580000
0+
#3585000
b1 q
1+
#3590000
0+
#3595000
b10 q
1+
#3600000
0+
#3605000
b11 q
1+
#3610000
0+
#3615000
b100 q
1+
#3620000
0+
#3625000
b101 q
1+
#3630000
0+
#3635000
bx0000000000000000000000000000000 8
bx000000000000000000000000000000 E
b11101 C
b0xxxxxxxxxxxxxxx t
b11110 r
0!
b0 q
1+
#3640000
0+
#3645000
b1 q
1+
#3650000
0+
#3655000
b10 q
1+
#3660000
0+
#3665000
b11 q
1+
#3670000
0+
#3675000
b100 q
1+
#3680000
0+
#3685000
1m
b101 q
1+
#3690000
0+
#3695000
bx0000000000000000000000000000000 H
0m
b10000000000000000000000000000000 u
1!
b0 q
1+
#3700000
0+
#3705000
b1 q
1+
#3710000
0+
#3715000
b10 q
1+
#3720000
0+
#3725000
b11 q
1+
#3730000
0+
#3735000
b100 q
1+
#3740000
0+
#3745000
b101 q
1+
#3750000
0+
#3755000
b0 8
bx0000000000000000000000000000000 E
b11110 C
b0xxxxxxxxxxxxxxxx t
b11111 r
0!
b0 q
1+
#3760000
0+
#3765000
b1 q
1+
#3770000
0+
#3775000
b10 q
1+
#3780000
0+
#3785000
b11 q
1+
#3790000
0+
#3795000
b100 q
1+
#3800000
0+
#3805000
1m
b101 q
1+
#3810000
0+
#3815000
b0 H
0m
b0 u
b1 8
1"
1!
b0 q
1+
#3820000
0+
#3825000
b1 q
1+
#3830000
0+
#3835000
b10 q
1+
#3840000
0+
#3845000
b11 q
1+
#3850000
0+
#3855000
b100 q
1+
#3860000
0+
#3865000
b101 q
1+
#3870000
0+
#3875000
b11 8
1D
0G
b1 E
b11111 C
b0xxxxxxxxxxxxxxxxx t
b100000 r
0!
b0 q
1+
#3880000
0+
#3885000
b1 q
b0xxxxxxxxxxxxxxxxx [
b0xxxxxxxxxxxxxxxxx b
b0xxxxxxxxxxxxxxxxx s
1Z
b0 v
b0 r
0\
1$
1+
#3890000
0+
#3895000
b0xxxxxxxxxxxxxxxxx h
b0 j
0Z
1+
#3900000
0+
#3905000
b0 '
b0 -
b0 ]
b0 g
1+
#3910000
0+
#3915000
1+
#3920000
0+
#3925000
1+
#3930000
0+
#3935000
b0 4
1+
#3940000
0+
#3945000
b10000001000001000 6
b0 2
1+
#3950000
0+
#3955000
1%
b1 (
b1 0
b1 V
b1 `
1+
#3960000
0+
#3965000
b10000001000001000 &
b10000001000001000 1
b10000001000001000 W
b10000001000001000 a
1X
1+
#3970000
0+
#3975000
b10000001000001000 Y
b10000001000001000 i
b10000001000001000 k
1X
0$
b1 v
1\
b1 u
0%
1+
#3980000
0+
#3985000
b10 q
b10000001000001000 u
b10000001000001000 '
b10000001000001000 -
b10000001000001000 ]
b10000001000001000 g
0X
b1 j
b0 (
b0 0
b0 V
b0 `
1+
#3990000
0+
#3995000
b1 '
b1 -
b1 ]
b1 g
b11 q
1+
#4000000
0+
#4005000
b100 q
b1 4
1+
#4010000
0+
#4015000
1m
b101 q
b1 2
1+
#4020000
0+
#4025000
b0 S
09
b0xxxxxxxx L
b0 R
b0xxxxxxxxxxxxxxxxx0 H
0#
0m
1!
b0 q
b100000010000010000 u
b10 8
0"
1+
#4030000
0+
#4035000
b1 q
1+
#4040000
0+
#4045000
b10 q
1+
#4050000
0+
#4055000
b11 q
1+
#4060000
0+
#4065000
b100 q
1+
#4070000
0+
#4075000
b101 q
1+
#4080000
0+
#4085000
b100 8
b10 E
1G
0D
b0 C
b0xxxxxxxxxxxxxxxxx0 t
b1 r
0!
b0 q
1+
#4090000
0+
#4095000
b1 q
1+
#4100000
0+
#4105000
b10 q
1+
#4110000
0+
#4115000
b11 q
1+
#4120000
0+
#4125000
b100 q
1+
#4130000
0+
#4135000
1m
b101 q
1+
#4140000
0+
#4145000
b0xxxxxxxxxxxxxxxxx00 H
0m
1!
b0 q
b1000000100000100000 u
1+
#4150000
0+
#4155000
b1 q
1+
#4160000
0+
#4165000
b10 q
1+
#4170000
0+
#4175000
b11 q
1+
#4180000
0+
#4185000
b100 q
1+
#4190000
0+
#4195000
b101 q
1+
#4200000
0+
